[gd_scene load_steps=7 format=2]

[ext_resource path="res://Label.gd" type="Script" id=1]
[ext_resource path="res://startArea.gd" type="Script" id=2]
[ext_resource path="res://Scenes/Label.gd" type="Script" id=3]
[ext_resource path="res://Scenes/Player.tscn" type="PackedScene" id=4]
[ext_resource path="res://Scenes/dungeon.tscn" type="PackedScene" id=5]

[sub_resource type="RectangleShape2D" id=1]
extents = Vector2( 37.4302, 10 )

[node name="Node" type="Node2D"]

[node name="Label" type="Label" parent="."]
margin_left = 73.0
margin_top = 48.0
margin_right = 227.0
margin_bottom = 124.0
align = 1
autowrap = true
max_lines_visible = 8
script = ExtResource( 1 )

[node name="startArea" type="Area2D" parent="."]
script = ExtResource( 2 )

[node name="CollisionShape2D" type="CollisionShape2D" parent="startArea"]
position = Vector2( 144.313, 378.923 )
shape = SubResource( 1 )

[node name="Label" type="Label" parent="startArea"]
margin_left = 0.901703
margin_top = 373.415
margin_right = 287.902
margin_bottom = 387.415
text = "CONTINUE"
align = 1
script = ExtResource( 3 )

[node name="Player" parent="." instance=ExtResource( 4 )]
position = Vector2( 142.023, 289.788 )

[node name="dungeon" parent="." instance=ExtResource( 5 )]
z_index = -1
tile_data = PoolIntArray( 0, 1, 458754, 1, 1, 458754, 2, 1, 458754, 3, 1, 458754, 4, 1, 458754, 5, 1, 458754, 6, 1, 458754, 7, 1, 458754, 8, 1, 458754, 9, 1, 458754, 10, 1, 458754, 11, 1, 458754, 12, 1, 458754, 13, 1, 458754, 14, 1, 458754, 15, 1, 458754, 16, 1, 458754, 17, 1, 458754, 65536, 1, 458754, 65537, 1, 458754, 65538, 1, 458754, 65539, 1, 458754, 65540, 1, 458754, 65541, 1, 458754, 65542, 1, 458754, 65543, 1, 458754, 65544, 1, 458754, 65545, 1, 458754, 65546, 1, 458754, 65547, 1, 458754, 65548, 1, 458754, 65549, 1, 458754, 65550, 1, 458754, 65551, 1, 458754, 65552, 1, 458754, 65553, 1, 458754, 131072, 1, 458754, 131073, 1, 458754, 131074, 1, 458754, 131075, 1, 458754, 131076, 1, 458754, 131077, 1, 458754, 131078, 1, 458754, 131079, 1, 458754, 131080, 1, 458754, 131081, 1, 458754, 131082, 1, 458754, 131083, 1, 458754, 131084, 1, 458754, 131085, 1, 458754, 131086, 1, 458754, 131087, 1, 458754, 131088, 1, 458754, 131089, 1, 458754, 196608, 1, 458754, 196609, 1, 458754, 196610, 1, 458754, 196611, 1, 458754, 196612, 1, 458754, 196613, 1, 458754, 196614, 1, 458754, 196615, 1, 458754, 196616, 1, 458754, 196617, 1, 458754, 196618, 1, 458754, 196619, 1, 458754, 196620, 1, 458754, 196621, 1, 458754, 196622, 1, 458754, 196623, 1, 458754, 196624, 1, 458754, 196625, 1, 458754, 262144, 1, 458754, 262145, 1, 458754, 262146, 1, 458754, 262147, 1, 458754, 262148, 1, 458754, 262149, 1, 458754, 262150, 1, 458754, 262151, 1, 458754, 262152, 1, 458754, 262153, 1, 458754, 262154, 1, 458754, 262155, 1, 458754, 262156, 1, 458754, 262157, 1, 458754, 262158, 1, 458754, 262159, 1, 458754, 262160, 1, 458754, 262161, 1, 458754, 327680, 1, 458754, 327681, 1, 458754, 327682, 1, 458754, 327683, 1, 458754, 327684, 1, 458754, 327685, 1, 458754, 327686, 1, 458754, 327687, 1, 458754, 327688, 1, 458754, 327689, 1, 458754, 327690, 1, 458754, 327691, 1, 458754, 327692, 1, 458754, 327693, 1, 458754, 327694, 1, 458754, 327695, 1, 458754, 327696, 1, 458754, 327697, 1, 458754, 393216, 1, 458754, 393217, 1, 458754, 393218, 1, 458754, 393219, 1, 458754, 393220, 1, 458754, 393221, 1, 458754, 393222, 1, 458754, 393223, 1, 458754, 393224, 1, 458754, 393225, 1, 458754, 393226, 1, 458754, 393227, 1, 458754, 393228, 1, 458754, 393229, 1, 458754, 393230, 1, 458754, 393231, 1, 458754, 393232, 1, 458754, 393233, 1, 458754, 458752, 1, 458754, 458753, 1, 458754, 458754, 1, 458754, 458755, 1, 458754, 458756, 1, 458754, 458757, 1, 458754, 458758, 1, 458754, 458759, 1, 458754, 458760, 1, 458754, 458761, 1, 458754, 458762, 1, 458754, 458763, 1, 458754, 458764, 1, 458754, 458765, 1, 458754, 458766, 1, 458754, 458767, 1, 458754, 458768, 1, 458754, 458769, 1, 458754, 524288, 1, 458754, 524289, 1, 458754, 524290, 1, 458754, 524291, 1, 458754, 524292, 1, 458754, 524293, 1, 458754, 524294, 1, 458754, 524295, 1, 458754, 524296, 1, 458754, 524297, 1, 458754, 524298, 1, 458754, 524299, 1, 458754, 524300, 1, 458754, 524301, 1, 458754, 524302, 1, 458754, 524303, 1, 458754, 524304, 1, 458754, 524305, 1, 458754, 589824, 1, 458754, 589825, 1, 458754, 589826, 1, 458754, 589827, 1, 458754, 589828, 1, 458754, 589829, 1, 458754, 589830, 1, 458754, 589831, 1, 458754, 589832, 1, 458754, 589833, 1, 458754, 589834, 1, 458754, 589835, 1, 458754, 589836, 1, 458754, 589837, 1, 458754, 589838, 1, 458754, 589839, 1, 458754, 589840, 1, 458754, 589841, 1, 458754, 655360, 1, 458754, 655361, 1, 458754, 655362, 1, 458754, 655363, 1, 458754, 655364, 1, 458754, 655365, 1, 458754, 655366, 1, 458754, 655367, 1, 458754, 655368, 1, 458754, 655369, 1, 458754, 655370, 1, 458754, 655371, 1, 458754, 655372, 1, 458754, 655373, 1, 458754, 655374, 1, 458754, 655375, 1, 458754, 655376, 1, 458754, 655377, 1, 458754, 720896, 1, 458754, 720897, 1, 458754, 720898, 1, 458754, 720899, 1, 458754, 720900, 1, 458754, 720901, 1, 458754, 720902, 1, 458754, 720903, 1, 458754, 720904, 1, 458754, 720905, 1, 458754, 720906, 1, 458754, 720907, 1, 458754, 720908, 1, 458754, 720909, 1, 458754, 720910, 1, 458754, 720911, 1, 458754, 720912, 1, 458754, 720913, 1, 458754, 786432, 1, 458754, 786433, 1, 458754, 786434, 1, 458754, 786435, 1, 458754, 786436, 1, 458754, 786437, 1, 458754, 786438, 1, 458754, 786439, 1, 458754, 786440, 1, 458754, 786441, 1, 458754, 786442, 1, 458754, 786443, 1, 458754, 786444, 1, 458754, 786445, 1, 458754, 786446, 1, 458754, 786447, 1, 458754, 786448, 1, 458754, 786449, 1, 458754, 851968, 1, 458754, 851969, 1, 458754, 851970, 1, 458754, 851971, 1, 458754, 851972, 1, 458754, 851973, 1, 458754, 851974, 1, 458754, 851975, 1, 458754, 851976, 1, 458754, 851977, 1, 458754, 851978, 1, 458754, 851979, 1, 458754, 851980, 1, 458754, 851981, 1, 458754, 851982, 1, 458754, 851983, 1, 458754, 851984, 1, 458754, 851985, 1, 458754, 917504, 1, 458754, 917505, 1, 458754, 917506, 1, 458754, 917507, 1, 458754, 917508, 1, 458754, 917509, 1, 458754, 917510, 1, 458754, 917511, 1, 458754, 917512, 1, 458754, 917513, 1, 458754, 917514, 1, 458754, 917515, 1, 458754, 917516, 1, 458754, 917517, 1, 458754, 917518, 1, 458754, 917519, 1, 458754, 917520, 1, 458754, 917521, 1, 458754, 983040, 1, 458754, 983041, 1, 458754, 983042, 1, 458754, 983043, 1, 458754, 983044, 1, 458754, 983045, 1, 458754, 983046, 1, 458754, 983047, 1, 458754, 983048, 1, 458754, 983049, 1, 458754, 983050, 1, 458754, 983051, 1, 458754, 983052, 1, 458754, 983053, 1, 458754, 983054, 1, 458754, 983055, 1, 458754, 983056, 1, 458754, 983057, 1, 458754, 1048576, 1, 458754, 1048577, 1, 458754, 1048578, 1, 458754, 1048579, 1, 458754, 1048580, 1, 458754, 1048581, 1, 458754, 1048582, 1, 458754, 1048583, 1, 458754, 1048584, 1, 458754, 1048585, 1, 458754, 1048586, 1, 458754, 1048587, 1, 458754, 1048588, 1, 458754, 1048589, 1, 458754, 1048590, 1, 458754, 1048591, 1, 458754, 1048592, 1, 458754, 1048593, 1, 458754, 1114112, 1, 458754, 1114113, 1, 458754, 1114114, 1, 458754, 1114115, 1, 458754, 1114116, 1, 458754, 1114117, 1, 458754, 1114118, 1, 458754, 1114119, 1, 458754, 1114120, 1, 458754, 1114121, 1, 458754, 1114122, 1, 458754, 1114123, 1, 458754, 1114124, 1, 458754, 1114125, 1, 458754, 1114126, 1, 458754, 1114127, 1, 458754, 1114128, 1, 458754, 1114129, 1, 458754, 1179648, 1, 458754, 1179649, 1, 458754, 1179650, 1, 458754, 1179651, 1, 458754, 1179652, 1, 458754, 1179653, 1, 458754, 1179654, 1, 458754, 1179655, 1, 458754, 1179656, 1, 458754, 1179657, 1, 458754, 1179658, 1, 458754, 1179659, 1, 458754, 1179660, 1, 458754, 1179661, 1, 458754, 1179662, 1, 458754, 1179663, 1, 458754, 1179664, 1, 458754, 1179665, 1, 458754, 1245184, 1, 458754, 1245185, 1, 458754, 1245186, 1, 458754, 1245187, 1, 458754, 1245188, 1, 458754, 1245189, 1, 458754, 1245190, 1, 458754, 1245191, 1, 458754, 1245192, 1, 458754, 1245193, 1, 458754, 1245194, 1, 458754, 1245195, 1, 458754, 1245196, 1, 458754, 1245197, 1, 458754, 1245198, 1, 458754, 1245199, 1, 458754, 1245200, 1, 458754, 1245201, 1, 458754, 1310720, 1, 458754, 1310721, 1, 458754, 1310722, 1, 458754, 1310723, 1, 458754, 1310724, 1, 458754, 1310725, 1, 458754, 1310726, 1, 458754, 1310727, 1, 458754, 1310728, 1, 458754, 1310729, 1, 458754, 1310730, 1, 458754, 1310731, 1, 458754, 1310732, 1, 458754, 1310733, 1, 458754, 1310734, 1, 458754, 1310735, 1, 458754, 1310736, 1, 458754, 1310737, 1, 458754, 1376256, 1, 458754, 1376257, 1, 458754, 1376258, 1, 458754, 1376259, 1, 458754, 1376260, 1, 458754, 1376261, 1, 458754, 1376262, 1, 458754, 1376263, 1, 458754, 1376264, 1, 458754, 1376265, 1, 458754, 1376266, 1, 458754, 1376267, 1, 458754, 1376268, 1, 458754, 1376269, 1, 458754, 1376270, 1, 458754, 1376271, 1, 458754, 1376272, 1, 458754, 1376273, 1, 458754, 1441792, 1, 458754, 1441793, 1, 458754, 1441794, 1, 458754, 1441795, 1, 458754, 1441796, 1, 458754, 1441797, 1, 458754, 1441798, 1, 458754, 1441799, 1, 458754, 1441800, 1, 458754, 1441801, 1, 458754, 1441802, 1, 458754, 1441803, 1, 458754, 1441804, 1, 458754, 1441805, 1, 458754, 1441806, 1, 458754, 1441807, 1, 458754, 1441808, 1, 458754, 1441809, 1, 458754, 1507328, 1, 458754, 1507329, 1, 458754, 1507330, 1, 458754, 1507331, 1, 458754, 1507332, 1, 458754, 1507333, 1, 458754, 1507334, 1, 458754, 1507335, 1, 458754, 1507336, 1, 458754, 1507337, 1, 458754, 1507338, 1, 458754, 1507339, 1, 458754, 1507340, 1, 458754, 1507341, 1, 458754, 1507342, 1, 458754, 1507343, 1, 458754, 1507344, 1, 458754, 1507345, 1, 458754, 1572864, 1, 458754, 1572865, 1, 458754, 1572866, 1, 458754, 1572867, 1, 458754, 1572868, 1, 458754, 1572869, 1, 458754, 1572870, 1, 458754, 1572871, 1, 458754, 1572872, 1, 458754, 1572873, 1, 458754, 1572874, 1, 458754, 1572875, 1, 458754, 1572876, 1, 458754, 1572877, 1, 458754, 1572878, 1, 458754, 1572879, 1, 458754, 1572880, 1, 458754, 1572881, 1, 458754, 1638400, 1, 458754, 1638401, 1, 458754, 1638402, 1, 458754, 1638403, 1, 458754, 1638404, 1, 458754, 1638405, 1, 458754, 1638406, 1, 458754, 1638407, 1, 458754, 1638408, 1, 458754, 1638409, 1, 458754, 1638410, 1, 458754, 1638411, 1, 458754, 1638412, 1, 458754, 1638413, 1, 458754, 1638414, 1, 458754, 1638415, 1, 458754, 1638416, 1, 458754, 1638417, 1, 458754, 1703936, 1, 458754, 1703937, 1, 458754, 1703938, 1, 458754, 1703939, 1, 458754, 1703940, 1, 458754, 1703941, 1, 458754, 1703942, 1, 458754, 1703943, 1, 458754, 1703944, 1, 458754, 1703945, 1, 458754, 1703946, 1, 458754, 1703947, 1, 458754, 1703948, 1, 458754, 1703949, 1, 458754, 1703950, 1, 458754, 1703951, 1, 458754, 1703952, 1, 458754, 1703953, 1, 458754, 1769472, 1, 458754, 1769473, 1, 458754, 1769474, 1, 458754, 1769475, 1, 458754, 1769476, 1, 458754, 1769477, 1, 458754, 1769478, 1, 458754, 1769479, 1, 458754, 1769480, 1, 458754, 1769481, 1, 458754, 1769482, 1, 458754, 1769483, 1, 458754, 1769484, 1, 458754, 1769485, 1, 458754, 1769486, 1, 458754, 1769487, 1, 458754, 1769488, 1, 458754, 1769489, 1, 458754, 1835008, 1, 458754, 1835009, 1, 458754, 1835010, 1, 458754, 1835011, 1, 458754, 1835012, 1, 458754, 1835013, 1, 458754, 1835014, 1, 458754, 1835015, 1, 458754, 1835016, 1, 458754, 1835017, 1, 458754, 1835018, 1, 458754, 1835019, 1, 458754, 1835020, 1, 458754, 1835021, 1, 458754, 1835022, 1, 458754, 1835023, 1, 458754, 1835024, 1, 458754, 1835025, 1, 458754, 1900544, 1, 458754, 1900545, 1, 458754, 1900546, 1, 458754, 1900547, 1, 458754, 1900548, 1, 458754, 1900549, 1, 458754, 1900550, 1, 458754, 1900551, 1, 458754, 1900552, 1, 458754, 1900553, 1, 458754, 1900554, 1, 458754, 1900555, 1, 458754, 1900556, 1, 458754, 1900557, 1, 458754, 1900558, 1, 458754, 1900559, 1, 458754, 1900560, 1, 458754, 1900561, 1, 458754, 1966080, 1, 458754, 1966081, 1, 458754, 1966082, 1, 458754, 1966083, 1, 458754, 1966084, 1, 458754, 1966085, 1, 458754, 1966086, 1, 458754, 1966087, 1, 458754, 1966088, 1, 458754, 1966089, 1, 458754, 1966090, 1, 458754, 1966091, 1, 458754, 1966092, 1, 458754, 1966093, 1, 458754, 1966094, 1, 458754, 1966095, 1, 458754, 1966096, 1, 458754, 1966097, 1, 458754, 2031616, 1, 458754, 2031617, 1, 458754, 2031618, 1, 458754, 2031619, 1, 458754, 2031620, 1, 458754, 2031621, 1, 458754, 2031622, 1, 458754, 2031623, 1, 458754, 2031624, 1, 458754, 2031625, 1, 458754, 2031626, 1, 458754, 2031627, 1, 458754, 2031628, 1, 458754, 2031629, 1, 458754, 2031630, 1, 458754, 2031631, 1, 458754, 2031632, 1, 458754, 2031633, 1, 458754 )
[connection signal="body_entered" from="startArea" to="startArea" method="_on_startArea_body_entered"]
